Commercial Building Electrification at Scale
…
## # A tibble: 1,543 x 3
##    Self.Reported.Gross.Floor.Area..~ Number.of.Buildings District.Steam.Use..kB~
##                                <dbl>               <dbl>                   <dbl>
##  1                            169416                   1                1133475.
##  2                            142088                   1                7195772.
##  3                            387664                   1               10443801.
##  4                            269470                   1                3431667.
##  5                           1102735                   1               38591283.
##  6                            200000                   1                  18433.
##  7                           1910503                   1               40817632 
##  8                            139824                   1                4182210.
##  9                            310000                   1                3284092.
## 10                            300954                   1               10943626.
## # ... with 1,533 more rows
